[
  {
    "name": "Bahagian Hal Ehwal Pembangunan Pelajar & Alumni (Kesihatan)"
  },
  {
    "name": "Hospital Universiti Sains Malaysia"
  },
  {
    "name": "Institut Penyelidikan Perubatan Molekul (Kesihatan)"
  },
  {
    "name": "Institut Perubatan & Pergigian Termaju (KCK)"
  },
  {
    "name": "Jabatan Bendahari (Kesihatan)"
  },
  {
    "name": "Jabatan Immunologi"
  },
  {
    "name": "Jabatan Keselamatan (Kesihatan)"
  },
  {
    "name": "Jabatan Mikrobiologi"
  },
  {
    "name": "Jabatan Neurosains (PPSP)"
  },
  {
    "name": "Jabatan Pembangunan dan Pengurusan Aset (KCK)"
  },
  {
    "name": "Jabatan Pendaftar (Kesihatan)"
  },
  {
    "name": "Jabatan Pendidikan Perubatan"
  },
  {
    "name": "Jabatan Radiologi"
  },
  {
    "name": "Jabatan Surgeri"
  },
  {
    "name": "Nexus Medical and Health Sciences"
  },
  {
    "name": "Pejabat Pengarah Kampus (Kesihatan)"
  },
  {
    "name": "Pelantar Penyelidikan Kesihatan"
  },
  {
    "name": "Perpustakaan Hamdan Tahir"
  },
  {
    "name": "Pusat Genom Manusia"
  },
  {
    "name": "Pusat Pengajian Bahasa, Literasi & Terjemahan (KCK)"
  },
  {
    "name": "Pusat Pengajian Sains Kesihatan"
  },
  {
    "name": "Pusat Pengajian Sains Pergigian"
  },
  {
    "name": "Pusat Pengajian Sains Perubatan"
  },
  {
    "name": "Pusat Pengetahuan Komunikasi dan Teknologi (Kesihatan)"
  },
  {
    "name": "Pusat Penyelidikan dan Perkhidmatan Haiwan (KCK)"
  },
  {
    "name": "Pusat Perumahan dan Penginapan Universiti (Kesihatan)"
  },
  {
    "name": "Pusat Rancangan Kokurikulum (Kesihatan)"
  }
]